['./parser.py', '20', '10']
2016-10-22 11:57:27.516031 New 186 rows.
2016-10-22 11:57:39.007056 New 32 rows.
2016-10-22 11:57:50.264435 New 0 rows.
2016-10-22 11:58:01.632560 New 0 rows.
2016-10-22 11:58:13.172607 New 0 rows.
2016-10-22 11:58:24.616889 New 0 rows.
2016-10-22 11:58:35.920520 New 0 rows.
2016-10-22 11:58:47.168588 New 0 rows.
2016-10-22 11:58:58.246440 New 0 rows.
2016-10-22 11:59:09.610275 New 0 rows.
2016-10-22 11:59:20.868184 New 0 rows.
2016-10-22 11:59:32.230599 New 0 rows.
2016-10-22 11:59:43.604271 New 0 rows.
2016-10-22 11:59:55.267074 New 0 rows.
2016-10-22 12:00:06.557991 New 0 rows.
2016-10-22 12:00:17.909649 New 0 rows.
2016-10-22 12:00:29.225614 New 0 rows.
2016-10-22 12:00:40.676861 New 0 rows.
2016-10-22 12:00:53.025627 New 0 rows.
2016-10-22 12:01:04.641510 New 0 rows.
2016-10-22 12:01:16.995139 New 0 rows.
2016-10-22 12:01:28.485772 New 0 rows.
2016-10-22 12:01:42.109723 New 0 rows.
2016-10-22 12:01:58.470653 New 0 rows.
2016-10-22 12:02:10.103864 New 0 rows.
2016-10-22 12:02:21.819867 New 0 rows.
2016-10-22 12:02:33.123900 New 0 rows.
2016-10-22 12:02:44.709392 New 0 rows.
2016-10-22 12:02:56.233033 New 0 rows.
2016-10-22 12:03:07.986633 New 0 rows.
